# If you add religions, and use those tags, do not change them without changing everywhere they are used.

# Uses all 'modifiers' possible thats exported as a Modifier.

cannorian = {
	can_form_personal_unions = yes
	defender_of_faith = yes
	flags_with_emblem_percentage = 33 # default == 0
	flag_emblem_index_range = { 1 57 }
	
	center_of_religion = 840 #Trialmount

	cannorian_pantheon = {
		color = { 204 204 204 }
		icon = 8
		allowed_conversion = {
			regent_court
		}
		country = {
			tolerance_heathen = 2
			tolerance_heretic = 2
			tolerance_own = 1
		}
		country_as_secondary = {
			tolerance_heathen = 2
			tolerance_heretic = 1
		}
		
		personal_deity = yes
		
		on_convert = {
			change_religion = cannorian_pantheon
			if = {
				limit = { NOT = { has_country_flag = emperor_religion_change } }
				add_prestige = -100
				
				add_country_modifier = {
					name = "conversion_zeal"
					duration = 3650
				}
			}
		}
		
		heretic = { BHAKTI }
		
		
	}
	
	regent_court = {
		color = { 204 204 204 }
		icon = 8
		allowed_conversion = {
			corinite
			ravelian
		}
		country = {
			tolerance_heathen = 2
			tolerance_heretic = 1
		}
		country_as_secondary = {
			tolerance_heathen = 2
		}
		
		personal_deity = yes
		hre_religion = yes

		on_convert = {
			change_religion = regent_court
			if = {
				limit = { NOT = { has_country_flag = emperor_religion_change } }
				add_prestige = -100
				
				add_country_modifier = {
					name = "conversion_zeal"
					duration = 3650
				}
			}
		}
		
		heretic = { OLD_PANTHEON }
		
		harmonized_modifier = harmonized_regent_court
	}
	
	corinite = {
		color = { 230 65 55 }
		icon = 2
		allowed_conversion = {
			regent_court #Back to mainline
			ravelian
		}
		allowed_center_conversion = {
			regent_court
		}
		
		country = {
			leader_land_shock = 1
			land_morale = 0.1
		}
		country_as_secondary = {
			land_morale = 0.05
		}
		
		hre_heretic_religion = yes
		fervor = yes
		
		will_get_center = { #Refered to even for initial CoR Spawn
			any_owned_province = {
				can_have_center_of_reformation_trigger = {
					RELIGION = corinite
				}
			}
		}

		on_convert = {
			change_religion = corinite
			if = {
				limit = { NOT = { has_country_flag = emperor_religion_change } }
				add_prestige = -100
				
				add_country_modifier = {
					name = "conversion_zeal"
					duration = 3650
				}
				
				if = {
					limit = {
						has_country_flag = reformation_money
						NOT = {
							calc_true_if = {
								all_province = {
									religion = corinite
									is_reformation_center = yes
								}
								amount = 3
							}
						}
					}
					hidden_effect = {
						random_owned_province = {
							limit = {
								can_have_center_of_reformation_trigger = {
									RELIGION = corinite
								}
							}
							change_religion = corinite
							add_reform_center = corinite
						}
					}
					custom_tooltip = CENTER_OF_REFORMATION_POSSIBLE
				}
				if = {
					limit = {
						NOT = { has_country_flag = reformation_money }
						NOT = {
							calc_true_if = {
								all_province = {
									religion = corinite
									is_reformation_center = yes
								}
								amount = 3
							}
						}
					}
					add_years_of_income = 1.0
					hidden_effect = {
						random_owned_province = {
							limit = {
								can_have_center_of_reformation_trigger = {
									RELIGION = corinite
								}
							}
							change_religion = corinite
							add_reform_center = corinite
						}
					}
					custom_tooltip = CENTER_OF_REFORMATION_POSSIBLE
				}
			}
		}
		
		heretic = { AGRADOS }
		
		date = 1510.1.1
	}
	
	ravelian = {
		color = { 69 69 69 }
		icon = 1
		allowed_conversion = {
			regent_court
			corinite
		}
		allowed_center_conversion = {
			regent_court
			corinite
		}
		country = {
			tolerance_heathen = 2
			global_institution_spread = 0.15
		}
		
		country_as_secondary = {
			tolerance_heathen = 1
			global_institution_spread = 0.10
		}
		
		will_get_center = { #Refered to even for initial CoR Spawn
			any_owned_province = {
				can_have_center_of_reformation_trigger = {
					RELIGION = ravelian
				}
				development = 20
			}
		}
		
		on_convert = {
			change_religion = ravelian
			if = {
				limit = { NOT = { has_country_flag = emperor_religion_change } }
				add_prestige = -100
				
				
				if = {
					limit = {
						has_country_flag = reformation_money
						NOT = {
							calc_true_if = {
								all_province = {
									religion = ravelian
									is_reformation_center = yes
								}
								amount = 3
							}
						}
					}
					hidden_effect = {
						random_owned_province = {
							limit = {
								can_have_center_of_reformation_trigger = {
									RELIGION = ravelian
								}
								development = 20	#so its an intellectual thing!
							}
							change_religion = ravelian
							add_reform_center = ravelian
						}
					}
					custom_tooltip = CENTER_OF_REFORMATION_POSSIBLE
				}
				if = {
					limit = {
						NOT = { has_country_flag = reformation_money }
						NOT = {
							calc_true_if = {
								all_province = {
									religion = ravelian
									is_reformation_center = yes
								}
								amount = 3
							}
						}
					}
					add_years_of_income = 1.0
					hidden_effect = {
						random_owned_province = {
							limit = {
								can_have_center_of_reformation_trigger = {
									RELIGION = ravelian
								}
							}
							change_religion = ravelian
							add_reform_center = ravelian
						}
					}
					custom_tooltip = CENTER_OF_REFORMATION_POSSIBLE
				}
				
				add_country_modifier = {
					name = "conversion_zeal"
					duration = 3650
				}			
				set_country_flag = reformation_money
				every_known_country = {
					limit = {
						reverse_has_opinion_modifier = {
							who = ROOT
							modifier = opinion_demote_pope
						}
					}
					reverse_remove_opinion = {
						who = ROOT
						modifier = opinion_demote_pope
					}
				}
			}
		}	
		
		
		heretic = { PURITAN }
		
		date = 1550.1.1
		
		papacy = {
			papal_tag = Z97
			election_cost = 5
			seat_of_papacy = 8 # anbenncost?
			
			#Council of Trent Positions
			harsh = {
				relation_with_heretics = -20
				global_religious_conversion_resistance = 0.25
				global_institution_spread = -0.25
				global_missionary_strength = 0.02
			}
			neutral = {
				global_religious_conversion_resistance = -0.33
			}
			concilatory = {
				relation_with_heretics = 10
				global_religious_conversion_resistance = 0.25
				global_heretic_missionary_strength = -0.05
				improve_relation_modifier = 0.25
			}
			
			#Council of Trent Concessions
			concessions = {
				first_concession = {
					harsh = {
						relation_with_heretics = -20
						global_heretic_missionary_strength  = 0.02
					}	
					concilatory = {
						relation_with_heretics = 10
						tolerance_heretic = 2
					}
				}
				second_concession = {
					harsh = {
						relation_with_heretics = -20
						institution_spread_from_true_faith = 0.30
					}	
					concilatory = {
						relation_with_heretics = 10
						global_institution_spread = 0.10
					}
				}
				third_concession = {
					harsh = {
						relation_with_heretics = -20
						manpower_in_true_faith_provinces  = 0.1
					}	
					concilatory = {
						relation_with_heretics = 10
						global_manpower_modifier = 0.05
					}
				}
				fourth_concession = {
					harsh = {
						relation_with_heretics = -20
						warscore_cost_vs_other_religion  = -0.10
					}	
					concilatory = {
						relation_with_heretics = 10
						curia_powers_cost = -0.10
					}
				}
			}
			
			levy_church_tax = {
				cost = 50
				potential = {
					NOT = { tag = Z97 }
				}
				allow = {
					NOT = { war_with = Z97 }
					# NOT = { has_country_modifier = papal_sanction_for_church_taxes }
				}
				# effect = {
					# add_country_modifier = {
						# name = "papal_sanction_for_church_taxes"
						# duration = 7300
					# }
				# }
				# ai_will_do = {
					# factor = 1
				# }				
			}			
			bless_monarch = {
				cost = 50
				potential = {
					NOT = { tag = Z97 }
				}
				allow = {
					NOT = { war_with = Z97 }
					NOT = { prestige = 100 }
					NOT = { has_country_modifier = papal_blessing }
				}
				effect = {
					add_country_modifier = {
						name = "papal_blessing"
						duration = 7300
					}
				}
				ai_will_do = {
					factor = 1
				}
			}
			indulgence_for_sins = {
				cost = 50
				potential = {
					government = monarchy
					NOT = { tag = Z97 }
				}
				allow = {
					NOT = { war_with = Z97 }
					NOT = { legitimacy = 100 }
					NOT = { has_country_modifier = papal_indulgence }
				}
				effect = {
					add_country_modifier = {
						name = "papal_indulgence"
						duration = 7300
					}
				}
				ai_will_do = {
					factor = 1
				}
			}	
			local_saint = {
				cost = 100
				potential = {
					NOT = { tag = Z97 }
				}
				allow = {
					NOT = { war_with = Z97 }
					NOT = { stability = 3 }
				}
				effect = {
					add_stability = 1
				}
				ai_will_do = {
					factor = 1
					modifier = {
						factor = 2
						NOT = { stability = 0 }
					}
				}
			}
			forgiveness_for_usury = {
				cost = 50
				potential = {
					NOT = { tag = Z97 }
				}
				allow = {
					NOT = { war_with = Z97 }
					NOT = { has_country_modifier = usury_forgiven }
				}
				effect = {
					add_country_modifier = {
						name = "usury_forgiven"
						duration = 7300
					}
				}
				ai_will_do = {
					factor = 1
					modifier = {
						factor = 0
						NOT = { num_of_loans = 1 }
					}
				}
			}			
			proclaim_holy_war = {
				cost = 50
				potential = {
					NOT = { tag = Z97 }
				}
				allow = {
					is_at_war = yes
					NOT = { war_with = Z97 }
					NOT = { has_country_modifier = papal_sanction_for_holy_war }
				}
				effect = {
					add_country_modifier = {
						name = "papal_sanction_for_holy_war"
						duration = 7300
					}
				}
				ai_will_do = {
					factor = 1
					modifier = {
						factor = 0
						manpower_percentage = 0.5
					}
				}
			}
			send_papal_legate = {
				cost = 50
				potential = {
					NOT = { tag = Z97 }
				}
				allow = {
					NOT = { war_with = Z97 }
					NOT = { has_country_modifier = papal_legate }
				}
				effect = {
					add_country_modifier = {
						name = "papal_legate"
						duration = 7300
					}
				}
				ai_will_do = {
					factor = 1
				}
			}
			send_ravelian_scholars = {
				cost = 50
				potential = {
					NOT = { tag = Z97 }
				}
				allow = {
					NOT = { war_with = Z97 }
					NOT = { innovativeness = 100 }
				}
				effect = {
					change_innovativeness = 1
				}
				ai_will_do = {
					factor = 1
					modifier = {
						factor = 0
						NOT = { has_idea_group = innovativeness_ideas }
					}
				}
			}
		}
	}

	
	crusade_name = CRUSADE
	harmonized_modifier = harmonized_cannorian
}

faithless = {

	flags_with_emblem_percentage = 0 # default == 0
	flag_emblem_index_range = { 1 57 }
	
	center_of_religion = 169 #Nimscodd

	the_thought = {
		color = { 198 182 212 }
		icon = 66
		country = {
			tolerance_heathen = 2
			adm_tech_cost_modifier = -0.1
			artificers_loyalty_modifier = 0.05
		}
		country_as_secondary = {
			adm_tech_cost_modifier = -0.1
			stability_cost_modifier = -0.1
		}
		heretic = { TAOIST }
		uses_harmony = yes
	}
	
	godlost = {
		color = { 55 59 67 }
		icon = 41
		country = {
			tolerance_heathen = 2
			discipline = 0.05
		}
		country_as_secondary = {
			army_tradition_decay = -0.01
		}
		heretic = { CHAOS_WORSHIPPERS }
		
		harmonized_modifier = harmonized_godlost
	}

	crusade_name = CRUSADE
}

kheteratan = {

	can_form_personal_unions = no
	flags_with_emblem_percentage = 33 # default == 0
	flag_emblem_index_range = { 1 57 }
	
	center_of_religion = 475 #Kheterat

	khetist = {
		color = { 252 162 100 }
		icon = 67
		allowed_conversion = {
			#sikhism
		}
		country = {
			tolerance_heathen = 2
			tolerance_own = 1
		}
		country_as_secondary = {
			tolerance_heathen = 1
			tolerance_own = 1
		}
		
		province = {
			local_missionary_strength = -0.02	#its harder to convert them 
		}
		
		on_convert = {
			change_religion = khetist
			add_prestige = -100
			
			add_country_modifier = {
				name = "conversion_zeal"
				duration = 3650
			}
		}
		
		heretic = { ELIKHETIST }
	}
	
	mother_akan = {
		color = { 200 162 100 }
		icon = 69
		allowed_conversion = {
			#sikhism
		}
		country = {
			defensiveness = 0.1
			tolerance_own = 1
		}
		country_as_secondary = {
			defensiveness = 0.1
		}
		
		province = {
			local_missionary_strength = -0.02	#its harder to convert them 
		}
		
		on_convert = {
			change_religion = mother_akan
			add_prestige = -100
			
			add_country_modifier = {
				name = "conversion_zeal"
				duration = 3650
			}
		}
		
		heretic = { FATHER_AKAN }
	}
	
	harmonized_modifier = harmonized_kheteratan
	
	crusade_name = HOLY_WAR
}

gnollish = {

	can_form_personal_unions = no
	flags_with_emblem_percentage = 33 # default == 0
	flag_emblem_index_range = { 1 57 }

	xhazobkult = {
		color = { 181 230 29 }
		icon = 64
		allowed_conversion = {
			#sikhism
		}
		country = {
			raze_power_gain = 0.2
			land_morale = 0.1
			artificers_influence_modifier = -0.05
		}
		country_as_secondary = {
			land_morale = 0.1
			raze_power_gain = 0.1
		}
		
		# doom = yes
		# declare_war_in_regency = yes
		# religious_reforms = yes
		
		province = {
			local_missionary_strength = -0.02	#its harder to convert them 
		}
		
		on_convert = {
			change_religion = xhazobkult
			add_prestige = -100
			
			add_country_modifier = {
				name = "conversion_zeal"
				duration = 3650
			}
		}
		
		heretic = { BAINIST }
	}
	
	harmonized_modifier = harmonized_gnollish
	
	crusade_name = HOLY_WAR
}

dwarven = {

	can_form_personal_unions = no
	flags_with_emblem_percentage = 33 # default == 0
	flag_emblem_index_range = { 1 57 }

	ancestor_worship = {
		color = { 99 99 99 }
		icon = 15
		allowed_conversion = {
			#sikhism
		}
		country = {
			same_culture_advisor_cost = -0.20
			defensiveness = 0.15
		}
		country_as_secondary = {
			same_culture_advisor_cost = -0.20
		}
		
		on_convert = {
			change_religion = ancestor_worship 
			add_prestige = -100
			
			add_country_modifier = {
				name = "conversion_zeal"
				duration = 3650
			}
		}
		
		heretic = { DEIST }
		
		holy_sites = { 4119 4311 2931 4078 2963 4093 4269 }		
		
		blessings = {
			global_unrest_dwarf
			dev_cost_dwarf
			tolerance_own_dwarf
			build_cost_dwarf
			morale_dwarf
			institution_spread_dwarf
			global_colonial_growth_dwarf
		}
	}
	
	runefather_worship = {
		color = { 50 30 50 }
		icon = 72
		allowed_conversion = {
		}
		country = {
			discipline = 0.05
			tolerance_heretic = -5
		}
		country_as_secondary = {
			discipline = 0.025
		}
		province = {
			trade_goods_size = 0.25
		}
		
		on_convert = {
			change_religion = runefather_worship
			add_prestige = -100
			
			add_country_modifier = {
				name = "conversion_zeal"
				duration = 3650
			}
		}
		
		heretic = { DEIST }
	}
	
	harmonized_modifier = harmonized_dwarven
	
	crusade_name = HOLY_WAR
}

elven = {

	can_form_personal_unions = no
	flags_with_emblem_percentage = 33 # default == 0
	flag_emblem_index_range = { 1 57 }

	elven_forebears = {
		color = { 186 241 248 }
		icon = 68
		allowed_conversion = {
			#sikhism
		}
		country = {
			prestige_decay = -0.02
			tolerance_heathen = 2
		}
		country_as_secondary = {
			prestige_decay = -0.01 
			tolerance_heathen = 2
		}
		
		on_convert = {
			change_religion = elven_forebears
			add_prestige = -100
			
			add_country_modifier = {
				name = "conversion_zeal"
				duration = 3650
			}
		}
		
		heretic = { GUARDIAN }
	}
	
	soise_vio = {
		color = { 200 170 180 }
		icon = 30
		allowed_conversion = {
			
		}
		country = {
			global_unrest = -1
			tolerance_heathen = -1
		}
		country_as_secondary = {
			global_unrest = -1
		}
		
		personal_deity = yes

		on_convert = {
			change_religion = soise_vio
			add_prestige = -100
			
			add_country_modifier = {
				name = "conversion_zeal"
				duration = 3650
			}
		}
		
		heretic = { GUARDIAN }
	}
	
	harmonized_modifier = harmonized_elven
	
	crusade_name = HOLY_WAR
}

bulwari = {

	can_form_personal_unions = no
	defender_of_faith = yes
	flags_with_emblem_percentage = 33 # default == 0
	flag_emblem_index_range = { 1 57 }
	
	center_of_religion = 601 #Bulwar or something

	bulwari_sun_cult = {
		color = { 255 201 14 }
		icon = 75
		allowed_conversion = {
			#sikhism
		}
		country = {
			global_unrest = -2
			tolerance_own = 2
		} 
		country_as_secondary = {
			global_unrest = -1
			tolerance_own = 1
		}
		
		province = {
			local_missionary_strength = -0.02	#its harder to convert them 
		}
		
		on_convert = {
			change_religion = bulwari_sun_cult
			add_prestige = -100
			
			add_country_modifier = {
				name = "conversion_zeal"
				duration = 3650
			}
		}
		
		heretic = { ECLIPSE }
	}

	old_bulwari_sun_cult = {
		color = { 255 67 24 }
		icon = 73
		allowed_conversion = {
			#sikhism
		}
		country = {
			garrison_size = 0.4
			tolerance_own = 2
		} 
		country_as_secondary = {
			garrison_size = 0.1
			tolerance_own = 1
		}
		
		province = {
			local_defensiveness = 0.1
			local_missionary_strength = -0.03	#its harder to convert them 
		}
		
		on_convert = {
			change_religion = old_bulwari_sun_cult
			add_prestige = -100
			
			add_country_modifier = {
				name = "conversion_zeal"
				duration = 3650
			}
		}
		
		heretic = { ECLIPSE }
	}
	
	the_jadd = {
		color = { 255 138 12 }
		icon = 74
		allowed_conversion = {
			#sikhism
		}
		country = {
			num_accepted_cultures  = 1
			land_morale = 0.1
		} 
		country_as_secondary = {
			promote_culture_cost = -0.25
			land_morale = 0.1
		}
		
		province = {
			local_missionary_strength = -0.02	#its harder to convert them
			local_manpower_modifier  = 0.25
		}
		
		on_convert = {
			change_religion = the_jadd
			add_prestige = -100
			
			add_country_modifier = {
				name = "conversion_zeal"
				duration = 3650
			}
		}
		
		heretic = { ECLIPSE }
	}
	
	crusade_name = HOLY_WAR
	
	harmonized_modifier = harmonized_bulwari
}

gerudian = {

	can_form_personal_unions = no
	flags_with_emblem_percentage = 33 # default == 0
	flag_emblem_index_range = { 1 57 }
	
	center_of_religion = 974 #Draksbur

	skaldhyrric_faith = {
		color = { 255 201 201 }
		icon = 23
		allowed_conversion = {
			#sikhism
		}
		country = {
			stability_cost_modifier = -0.1
			tolerance_own = 2
		} 
		country_as_secondary = {
			stability_cost_modifier = -0.1
		}
		personal_deity = yes
		
		province = {
			local_missionary_strength = -0.02	#its harder to convert them 
		}
		
		on_convert = {
			change_religion = skaldhyrric_faith
			add_prestige = -100
			
			add_country_modifier = {
				name = "conversion_zeal"
				duration = 3650
			}
		}
		
		heretic = { AWAKER }
	}

	harmonized_modifier = harmonized_gerudian
	
}

orcish = {

	can_form_personal_unions = no
	flags_with_emblem_percentage = 33 # default == 0
	flag_emblem_index_range = { 1 57 }
	
	center_of_religion = 677 #Jorkad Hall Outside

	great_dookan = {
		color = { 43 106 62 }
		icon = 62
		allowed_conversion = {
			old_dookan
		}
		country = {
			land_morale = 0.1
			prestige_from_land = 0.25
			tolerance_heathen = -2
		}
		country_as_secondary = {
			land_morale = 0.1
		}
		
		uses_anglican_power = yes				# Uses church power/aspect mechanics
		aspects = {
			find_reincarnated_warrior_aspect
			shake_the_earth
			invoke_warrior_heritage_aspect
			#glorious_looting_aspect
			#purge_the_weak_aspect
			gather_great_host_aspect
			assemble_shamans_aspect
			anoint_slave_herd
		}
		aspects_name = ANGLICAN_ASPECTS
		
		on_convert = {
			change_religion = great_dookan
			add_prestige = -100
			
			add_country_modifier = {
				name = "conversion_zeal"
				duration = 3650
			}
		}
		
		heretic = { DENIER }
	}

	old_dookan = {
		color = { 13 56 22 }
		icon = 63
		allowed_conversion = {
			great_dookan
		}
		country = {
			army_tradition = 0.5
			global_unrest = -1
			tolerance_heretic = -2
		}
		country_as_secondary = {
			army_tradition = 0.3
		}
		
		uses_anglican_power = yes				# Uses church power/aspect mechanics
		aspects = {
			look_for_omens
			shake_the_earth
			ask_for_dookan_guidance
			#glorious_looting_aspect
			#purge_the_weak_aspect
			gather_great_host_aspect
			assemble_shamans_aspect
			anoint_slave_herd
		}
		aspects_name = ANGLICAN_ASPECTS
		
		on_convert = {
			change_religion = old_dookan
			add_prestige = -100
			
			add_country_modifier = {
				name = "conversion_zeal"
				duration = 3650
			}
		}
		
		heretic = { DENIER }
	}
	
	harmonized_modifier = harmonized_orcish
	
}

dragon_cult = {

	can_form_personal_unions = no
	flags_with_emblem_percentage = 33 # default == 0
	flag_emblem_index_range = { 1 57 }
	
	center_of_religion = 189 #Deep Kobilderd

	kobold_dragon_cult = {
		color = { 3 85 124 }
		icon = 65
		allowed_conversion = {
			#sikhism
		}
		country = {
			loot_amount = 0.5
			available_province_loot = 0.5
		}
		country_as_secondary = {
			loot_amount = 0.2
			available_province_loot = 0.2
		}
		
		on_convert = {
			change_religion = kobold_dragon_cult
			add_prestige = -100
			
			add_country_modifier = {
				name = "conversion_zeal"
				duration = 3650
			}
		}
		
		heretic = { DENIER }
	}
	
	drozma_tur = {
		color = { 61  179  26 }
		icon = 93
		allowed_conversion = {
			#sikhism
		}
		country = {
			movement_speed = 0.2
			diplomatic_reputation = 1
		}
		country_as_secondary = {
			movement_speed = 0.2
			diplomatic_reputation = 1
		}
		
		on_convert = {
			change_religion = drozma_tur
			add_prestige = -100
			
			add_country_modifier = {
				name = "conversion_zeal"
				duration = 3650
			}
		}
		
		heretic = { YNN_DROZMA }
	}

	kobold_serpent_cult = {
		color = { 0 200 50 }
		icon = 21
		allowed_conversion = {
			#sikhism
		}
		country = {
			loot_amount = 0.5
			tolerance_heretic = 2
		}
		country_as_secondary = {
			loot_amount = 0.2
			tolerance_heretic = 2
		}
		
		uses_hussite_power = yes
		
		aspects = {
			test_1_aspect
			test_new_hovel_aspect
			test_amldihr_aspect
		}
		aspects_name = PROTESTANT_ASPECTS
		on_convert = {
			change_religion = kobold_serpent_cult
			add_prestige = -100
			
			add_country_modifier = {
				name = "conversion_zeal"
				duration = 3650
			}
		}
		
		heretic = { DENIER }
	}
	
	harmonized_modifier = harmonized_dragon_cult
	
}

goblin = {

	can_form_personal_unions = no
	flags_with_emblem_percentage = 33 # default == 0
	flag_emblem_index_range = { 1 57 }
	
	goblinic_shamanism = {	#The plural for goblin is goblinoid
		color = { 127 76 76 }
		icon = 78
		country = {
			tolerance_heathen = 2
			loot_amount = 0.10
		}
		country_as_secondary = {
			tolerance_own = 2
			loot_amount = 0.25
		}

		fetishist_cult = yes
		heretic = { CHAOS_WORSHIPPERS }
	}
	
	harmonized_modifier = harmonized_goblin
}

harpy_cults = {

	can_form_personal_unions = no
	flags_with_emblem_percentage = 33 # default == 0
	flag_emblem_index_range = { 1 57 }
	
	the_hunt = {	
		color = { 173 148 124 }
		icon = 70
		country = {
			leader_land_shock = 1
			tolerance_heathen = 3
		}
		country_as_secondary = {
			leader_land_shock = 1
		}
		
		uses_anglican_power = yes				# Uses church power/aspect mechanics
		aspects = {
			harpy_gain_heir_aspect
			harpy_move_pop_aspect
			harpy_raid_neighbour_aspect
			harpy_fair_winds_aspect
			harpy_gain_siege_aspect
		}
		aspects_name = ANGLICAN_ASPECTS

		heretic = { PREY }
	}
	
	harmonized_modifier = harmonized_harpy_cults
}

aelantiri = {

	can_form_personal_unions = no
	flags_with_emblem_percentage = 33 # default == 0
	flag_emblem_index_range = { 1 57 }
	
	weeping_mother = {
		color = { 255 120 128 }
		icon = 89
		allowed_conversion = {
			#sikhism
		}
		country = {
			global_unrest = -2
			tolerance_own = 1
		}
		country_as_secondary = {
			global_unrest = -2
		}
		
		province = {
			local_missionary_strength = 0.02	#its easy to convert them
		}
		
		on_convert = {
			change_religion = weeping_mother 
			add_prestige = -100
			
			add_country_modifier = {
				name = "conversion_zeal"
				duration = 3650
			}
		}
		
		heretic = { WEEPING_TREE }
	}
	
	death_cult_of_cheshosh = {
		color = { 66 66 66 }
		icon = 90
		allowed_conversion = {
			#sikhism
		}
		country = {
			land_morale = 0.1 
			shock_damage = 0.1
		}
		country_as_secondary = {
			land_morale = 0.1 
		}
		
		province = {
			local_missionary_strength = 0.02	#its easy to convert them
		}
		
		on_convert = {
			change_religion = death_cult_of_cheshosh 
			add_prestige = -100
			
			add_country_modifier = {
				name = "conversion_zeal"
				duration = 3650
			}
		}
		
		heretic = { RUINED_GODS }
	}
	
	harmonized_modifier = harmonized_aelantiri
}

harafe = {
	kalun_masks = {
		color = { 210 20 60 }
		icon = 91
		allowed_conversion = {
			#sikhism
		}
		country = {
			production_efficiency = 0.1
			prestige_decay = -0.01
		} 
		country_as_secondary = {
			production_efficiency = 0.1
		}
		
		province = {
			local_missionary_strength = -0.02	#resistant to conversion
		}
		
		on_convert = {
			change_religion = kalun_masks
			add_prestige = -100
			
			add_country_modifier = {
				name = "conversion_zeal"
				duration = 3650
			}
		}
		
		heretic = { BLANK_MASKS }
	}

	harmonized_modifier = harmonized_harafe
	
}
effelai = {
	tswohvwohii = {
		color = { 60 240 120 }
		icon = 52
		allowed_conversion = {
			chahinanito
			song_servants
		}
		country = {
			prestige_decay = -0.01
			tolerance_heretic = -2
		}
		country_as_secondary = {
			prestige = 0.66
		}
		
		province = {
			local_missionary_strength = -0.02 # Resistant to conversion
		}
		
		on_convert = {
			change_religion = tswohvwohii
			add_prestige = -100
			
			add_country_modifier = {
				name = "conversion_zeal"
				duration = 3650
			}
		}
		
		heretic = {
		
		}
	}
	chahinanito = {
		color = { 90 127 20 }
		icon = 12
		allowed_conversion = {
			tswohvwohii
			song_servants
		}
		country = {
			trade_efficiency = 0.2
			tolerance_heathen = -2
		}
		country_as_secondary = {
			trade_steering = 0.1
		}
		
		province = {
			local_missionary_strength = -0.02 # Resistant to conversion
		}
		
		on_convert = {
			change_religion = chahinanito
			add_prestige = -100
			
			add_country_modifier = {
				name = "conversion_zeal"
				duration = 3650
			}
		}
		
		heretic = {
		
		}
	}
	song_servants = {
		color = { 235 215 210 }
		icon = 60
		allowed_conversion = {
			
		}
		country = {
			garrison_size = 0.15
			land_attrition = -0.1
		}
		country_as_secondary = {
			garrison_size = 0.1
		}
		
		province = {
			local_defensiveness = 0.1
		}
		
		on_convert = {
			change_religion = song_servants
			add_prestige = -100
			
			add_country_modifier = {
				name = "conversion_zeal"
				duration = 3650
			}
		}
		
		heretic = {
		
		}
	}
	orwaii = {
		color = { 30 80 50 }
		icon = 39
		allowed_conversion = {
			
		}
		country = {
			discipline = 0.05
			tolerance_own = 2
		}
		country_as_secondary = {
			discipline = 0.025
		}
		
		province = {
			local_missionary_strength = 0.01 # Easy to convert
		}
		
		on_convert = {
			change_religion = orwaii
			add_prestige = -100
			
			add_country_modifier = {
				name = "conversion_zeal"
				duration = 3650
			}
		}
		
		heretic = {
			
		}
	}	
    leechfather = {
        color = { 25 0 51 }
        icon = 52
        allowed_conversion = {
        
        }
        country = {
            global_sailors_modifier = 0.1
            sailors_recovery_speed = 0.1
        }
        country_as_secondary = {
            hostile_attrition = 1
        }
        
        province = {
            local_missionary_strength = 0.01 # Easy to convert
        }
        
        on_convert = {
			change_religion = leechfather
			add_prestige = -100
			
			add_country_modifier = {
				name = "conversion_zeal"
				duration = 3650
			}
        }
        heretic = {
            LEECHMOTHER
        }
    }
	harmonized_modifier = harmonized_effelai
    }

andic = {

	can_form_personal_unions = no
	flags_with_emblem_percentage = 34 # default == 0
	flag_emblem_index_range = { 1 57 }

	kheionism = {
		color = { 99 99 133 }
		icon = 77
		allowed_conversion = {
			#sikhism
		}
		country = {
			republican_tradition = 0.25
			trade_efficiency = 0.1
		}
		country_as_secondary = {
			trade_efficiency = 0.1
		}
		
		on_convert = {
			change_religion = kheionism 
			add_prestige = -100
			
			add_country_modifier = {
				name = "conversion_zeal"
				duration = 3650
			}
		}
		
		heretic = { EIONIST }
	}
	
	harmonized_modifier = harmonized_andic
	
}

taychendi = {
	
	can_form_personal_unions = no
	flags_with_emblem_percentage = 33 # default == 0
	flag_emblem_index_range = { 1 57 }

	gods_of_the_taychend = {
		color = { 188 181 73 }
		icon = 71
		allowed_conversion = {
			#sikhism
		}
		country = {
			advisor_cost = -0.25
			prestige_decay = -0.01
		}
		country_as_secondary = {
			advisor_cost = -0.25
		}
		
		on_convert = {
			change_religion = gods_of_the_taychend 
			add_prestige = -100
			
			add_country_modifier = {
				name = "conversion_zeal"
				duration = 3650
			}
		}
		
		heretic = { NOGOD }
		
		#this should be hindu personal deities
	}
	
	harmonized_modifier = harmonized_taychendi
}

ynnic = {
	
	can_form_personal_unions = no
	flags_with_emblem_percentage = 33 # default == 0
	flag_emblem_index_range = { 1 57 }

	ynn_river_worship = {
		color = { 139  172  212 }
		icon = 92
		allowed_conversion = {
			#sikhism
		}
		country = {
			tolerance_own = 1
		}
		country_as_secondary = {
			reinforce_speed = 0.1
		}
		
		on_convert = {
			change_religion = ynn_river_worship 
			add_prestige = -100
			
			add_country_modifier = {
				name = "conversion_zeal"
				duration = 3650
			}
		}
		
		heretic = { YNN_DAMMIC_CULT }
		
	}
	
	harmonized_modifier = harmonized_ynnic
}

fey_religion = {
	can_form_personal_unions = no
	flags_with_emblem_percentage = 33 # default == 0
	flag_emblem_index_range = { 1 57 }
	
	fey_court = {	#The plural for goblin is goblinoid
		color = { 0 114 187 }
		icon = 22
		country = {
			core_decay_on_your_own = -0.5
			global_unrest = -1
		}
		country_as_secondary = {
			core_decay_on_your_own = -0.5
		}
		
		province = {
			local_monthly_devastation = -0.1
		}
		on_convert = {
			change_religion = fey_court 
			add_prestige = -100
			
			add_country_modifier = {
				name = "conversion_zeal"
				duration = 3650
			}
		}

		uses_piety = yes
		heretic = { CHAOS_WORSHIPPERS }
	}
	eordellon = {
		color = { 253 232 199 }
		icon = 88
		allowed_conversion = {
		
		}
		country = {
			tolerance_own = 1
			development_cost = -0.1
			global_heretic_missionary_strength = 0.015
		}
		country_as_secondary = {
			development_cost = -0.1
		}
		
		on_convert = {
			change_religion = eordellon 
			add_prestige = -100
			
			add_country_modifier = {
				name = "conversion_zeal"
				duration = 3650
			}
		}
		
		uses_piety = yes
		heretic = { 
			LANNANSIT #FeyLover
			ARRFATH
			SARMADFATH
			FOGHARFATH
			GEMRADFATH
		} 
	}
	spring_court = {
		color = { 184 228 80 }
		icon = 84
		allowed_conversion = {
			eordellon
		}
		country = {
			idea_cost = -0.1
			manpower_recovery_speed = 0.1
		}
		country_as_secondary = {
			idea_cost = -0.1
		}
		
		on_convert = {
			change_religion = spring_court
			add_prestige = -100
			
			add_country_modifier = {
				name = "conversion_zeal"
				duration = 3650
			}
		}
		
		uses_piety = yes
		heretic = { 
			LANNANSIT #FeyLover
			SARMADFATH
			FOGHARFATH
			GEMRADFATH
		} 
	}
	summer_court = {
		color = { 245 192 54 }
		icon = 85
		allowed_conversion = {
			eordellon
		}
		country = {
			naval_forcelimit_modifier = 0.25
			global_trade_goods_size_modifier = 0.1
		}
		country_as_secondary = {
			navy_tradition = 1
		}
		
		on_convert = {
			change_religion =summer_court
			add_prestige = -100
			
			add_country_modifier = {
				name = "conversion_zeal"
				duration = 3650
			}
		}
		
		uses_piety = yes
		heretic = { 
			LANNANSIT #FeyLover
			ARRFATH
			FOGHARFATH
			GEMRADFATH
		} 
	}
	autumn_court = {
		color = { 249 121 44 }
		icon = 86
		allowed_conversion = {
			eordellon
		}
		country = {
			global_tax_modifier = 0.1
			global_unrest = -1
		}
		country_as_secondary = {
			global_unrest = -1
		}
		
		on_convert = {
			change_religion = autumn_court 
			add_prestige = -100
			
			add_country_modifier = {
				name = "conversion_zeal"
				duration = 3650
			}
		}
		
		uses_piety = yes
		heretic = { 
			LANNANSIT #FeyLover
			ARRFATH
			SARMADFATH
			GEMRADFATH
		} 
	}
	winter_court = {
		color = { 202 244 255 }
		icon = 87
		allowed_conversion = {
			eordellon
		}
		country = {
			global_spy_defence = 0.15
			war_exhaustion = -0.03
		}
		country_as_secondary = {
			global_spy_defence = 0.15
		}
		
		on_convert = {
			change_religion = winter_court 
			add_prestige = -100
			
			add_country_modifier = {
				name = "conversion_zeal"
				duration = 3650
			}
		}
		
		uses_piety = yes
		heretic = { 
			LANNANSIT #FeyLover
			ARRFATH
			SARMADFATH
			FOGHARFATH
		} 
	}
	
	
	ashentree_pact = {
		color = { 80 200 160 }
		icon = 76
		country = {
			tolerance_own = 3
			land_morale = 0.05
			tolerance_heathen = -2
		}
		province = {
			local_missionary_strength = -0.02
		}
		country_as_secondary = {
			tolerance_own = 1
		}
		on_convert = {
			change_religion = ashentree_pact 
			add_prestige = -100
			
			add_country_modifier = {
				name = "conversion_zeal"
				duration = 3650
			}
		}
		uses_piety = yes
		declare_war_in_regency = yes
		heretic = { EVIL_SPIRIT DEMONWORSHIPPERS }
	}
	
	harmonized_modifier = harmonized_fey_religion
}

raheni = {
	can_form_personal_unions = no
	flags_with_emblem_percentage = 33 # default == 0
	flag_emblem_index_range = { 1 57 }
	
	#Schools
	religious_schools = {
		starry_eye_school = {
			potential_invite_scholar = {
				knows_of_scholar_country_capital_trigger = yes
			}

			# THIS = Nation wanting to invite the scholar, FROM = Nation that follows that school
			can_invite_scholar = {
				adm_power_cost = 50
				reverse_has_opinion = { who = FROM value = 150 }
				NOT = { anb_has_religious_scholars_trigger = yes }
				OR = {
					alliance_with = FROM
					is_subject_of = FROM
					overlord_of = FROM
				}
				hidden_progressive_opinion_for_scholar_trigger = yes
			}

			# THIS = Nation wanting to invite the scholar, FORM = Nation that sends scholar
			on_invite_scholar = {
				add_adm_power = -50
				clear_religious_scholar_modifiers_effect = yes
				custom_tooltip = INVITE_SCHOLAR_COUNTRY_TEXT
				add_country_modifier = { name = starry_eye_scholar_modifier duration = 7300 }
			} 

			# If you don't set this it will expand on_invite_scholar effect which might be super big
			invite_scholar_modifier_display = starry_eye_scholar_modifier

			picture = "GFX_icon_high_philosophy_school_starry_eye"

			# religion_sub_modifier = no is possible, will hide icon in religious screen
			idea_cost = -0.1
			advisor_cost = -0.1
		}
		radiant_sun_school = {
			potential_invite_scholar = {
				knows_of_scholar_country_capital_trigger = yes
			}

			# THIS = Nation wanting to invite the scholar, FROM = Nation that follows that school
			can_invite_scholar = {
				adm_power_cost = 50
				reverse_has_opinion = { who = FROM value = 150 }
				NOT = { anb_has_religious_scholars_trigger = yes }
				OR = {
					alliance_with = FROM
					is_subject_of = FROM
					overlord_of = FROM
				}
				hidden_progressive_opinion_for_scholar_trigger = yes
			}

			# THIS = Nation wanting to invite the scholar, FORM = Nation that sends scholar
			on_invite_scholar = {
				add_adm_power = -50
				clear_religious_scholar_modifiers_effect = yes
				custom_tooltip = INVITE_SCHOLAR_COUNTRY_TEXT
				add_country_modifier = { name = radiant_sun_scholar_modifier duration = 7300 }
			} 

			# If you don't set this it will expand on_invite_scholar effect which might be super big
			invite_scholar_modifier_display = radiant_sun_scholar_modifier

			picture = "GFX_icon_high_philosophy_school_radiant_sun"

			# religion_sub_modifier = no is possible, will hide icon in religious screen
			global_manpower_modifier = 0.1
			development_cost = -0.1
		}
		orange_sash_school = {
			potential_invite_scholar = {
				knows_of_scholar_country_capital_trigger = yes
			}

			# THIS = Nation wanting to invite the scholar, FROM = Nation that follows that school
			can_invite_scholar = {
				adm_power_cost = 50
				reverse_has_opinion = { who = FROM value = 150 }
				NOT = { anb_has_religious_scholars_trigger = yes }
				OR = {
					alliance_with = FROM
					is_subject_of = FROM
					overlord_of = FROM
				}
				hidden_progressive_opinion_for_scholar_trigger = yes
			}

			# THIS = Nation wanting to invite the scholar, FORM = Nation that sends scholar
			on_invite_scholar = {
				add_adm_power = -50
				clear_religious_scholar_modifiers_effect = yes
				custom_tooltip = INVITE_SCHOLAR_COUNTRY_TEXT
				add_country_modifier = { name = orange_sash_scholar_modifier duration = 7300 }
			} 

			# If you don't set this it will expand on_invite_scholar effect which might be super big
			invite_scholar_modifier_display = orange_sash_scholar_modifier

			picture = "GFX_icon_high_philosophy_school_orange_sash"

			# religion_sub_modifier = no is possible, will hide icon in religious screen
			corruption = -0.1
			legitimacy = 1
			devotion = 0.5
			republican_tradition = 0.3
		}
		golden_palace_school = {
			potential_invite_scholar = {
				knows_of_scholar_country_capital_trigger = yes
			}

			# THIS = Nation wanting to invite the scholar, FROM = Nation that follows that school
			can_invite_scholar = {
				adm_power_cost = 50
				reverse_has_opinion = { who = FROM value = 150 }
				NOT = { anb_has_religious_scholars_trigger = yes }
				OR = {
					alliance_with = FROM
					is_subject_of = FROM
					overlord_of = FROM
				}
				hidden_progressive_opinion_for_scholar_trigger = yes
			}

			# THIS = Nation wanting to invite the scholar, FORM = Nation that sends scholar
			on_invite_scholar = {
				add_adm_power = -50
				clear_religious_scholar_modifiers_effect = yes
				custom_tooltip = INVITE_SCHOLAR_COUNTRY_TEXT
				add_country_modifier = { name = golden_palace_scholar_modifier duration = 7300 }
			} 

			# If you don't set this it will expand on_invite_scholar effect which might be super big
			invite_scholar_modifier_display = golden_palace_scholar_modifier

			picture = "GFX_icon_high_philosophy_school_golden_palace"

			# religion_sub_modifier = no is possible, will hide icon in religious screen
			global_unrest  = -2
			global_tax_modifier = 0.1
		}
		unbroken_claw_school = {
			potential_invite_scholar = {
				knows_of_scholar_country_capital_trigger = yes
			}

			# THIS = Nation wanting to invite the scholar, FROM = Nation that follows that school
			can_invite_scholar = {
				adm_power_cost = 50
				reverse_has_opinion = { who = FROM value = 150 }
				NOT = { anb_has_religious_scholars_trigger = yes }
				OR = {
					alliance_with = FROM
					is_subject_of = FROM
					overlord_of = FROM
				}
				hidden_progressive_opinion_for_scholar_trigger = yes
			}

			# THIS = Nation wanting to invite the scholar, FORM = Nation that sends scholar
			on_invite_scholar = {
				add_adm_power = -50
				clear_religious_scholar_modifiers_effect = yes
				custom_tooltip = INVITE_SCHOLAR_COUNTRY_TEXT
				add_country_modifier = { name = unbroken_claw_scholar_modifier duration = 7300 }
			} 

			# If you don't set this it will expand on_invite_scholar effect which might be super big
			invite_scholar_modifier_display = unbroken_claw_scholar_modifier

			picture = "GFX_icon_high_philosophy_school_unbroken_claw"

			# religion_sub_modifier = no is possible, will hide icon in religious screen
			shock_damage = 0.10
			war_exhaustion = -0.02
		}
		silk_turban_school = {
			potential_invite_scholar = {
				knows_of_scholar_country_capital_trigger = yes
			}

			# THIS = Nation wanting to invite the scholar, FROM = Nation that follows that school
			can_invite_scholar = {
				adm_power_cost = 50
				reverse_has_opinion = { who = FROM value = 150 }
				NOT = { anb_has_religious_scholars_trigger = yes }
				OR = {
					alliance_with = FROM
					is_subject_of = FROM
					overlord_of = FROM
				}
				hidden_progressive_opinion_for_scholar_trigger = yes
			}

			# THIS = Nation wanting to invite the scholar, FORM = Nation that sends scholar
			on_invite_scholar = {
				add_adm_power = -50
				clear_religious_scholar_modifiers_effect = yes
				custom_tooltip = INVITE_SCHOLAR_COUNTRY_TEXT
				add_country_modifier = { name = silk_turban_scholar_modifier duration = 7300 }
			} 

			# If you don't set this it will expand on_invite_scholar effect which might be super big
			invite_scholar_modifier_display = silk_turban_scholar_modifier

			picture = "GFX_icon_high_philosophy_school_silk_turban"

			# religion_sub_modifier = no is possible, will hide icon in religious screen
			trade_efficiency = 0.1
			merchants = 1
		}
		ascendant_soul_school = {
			potential_invite_scholar = {
				knows_of_scholar_country_capital_trigger = yes
			}

			# THIS = Nation wanting to invite the scholar, FROM = Nation that follows that school
			can_invite_scholar = {
				adm_power_cost = 50
				reverse_has_opinion = { who = FROM value = 150 }
				NOT = { anb_has_religious_scholars_trigger = yes }
				OR = {
					alliance_with = FROM
					is_subject_of = FROM
					overlord_of = FROM
				}
				hidden_progressive_opinion_for_scholar_trigger = yes
			}

			# THIS = Nation wanting to invite the scholar, FORM = Nation that sends scholar
			on_invite_scholar = {
				add_adm_power = -50
				clear_religious_scholar_modifiers_effect = yes
				custom_tooltip = INVITE_SCHOLAR_COUNTRY_TEXT
				add_country_modifier = { name = ascendant_soul_scholar_modifier duration = 7300 }
			} 

			# If you don't set this it will expand on_invite_scholar effect which might be super big
			invite_scholar_modifier_display = ascendant_soul_scholar_modifier

			picture = "GFX_icon_high_philosophy_school_ascendant_soul"

			# religion_sub_modifier = no is possible, will hide icon in religious screen
			country_admin_power = 1
			army_tradition = 0.5
		}
	}
	
	high_philosophy = {
		color = { 73 9 96 }
		icon = 61
		allowed_conversion = {
			#sikhism
		}
		country = {
			reform_progress_growth = 0.1
			stability_cost_modifier = -0.2
		}
		country_as_secondary = {
			stability_cost_modifier = -0.2
		}
		
		province = {
			local_missionary_strength = -0.02	#its harder to convert them
		}
		
		on_convert = {
			change_religion = high_philosophy 
			add_prestige = -100
			
			add_country_modifier = {
				name = "conversion_zeal"
				duration = 3650
			}
		}
		
		heretic = { RAHENI_GODS }
	}
	
	harmonized_modifier = harmonized_raheni
}

halessi = {
	
	can_form_personal_unions = no
	flags_with_emblem_percentage = 33 # default == 0
	flag_emblem_index_range = { 1 57 }

	righteous_path = {
		color = { 222  222  222 }
		icon = 9
		allowed_conversion = {
			lefthand_path
		}
		country = {
			tolerance_own = 1
		}
		country_as_secondary = {
			reinforce_speed = 0.1
		}
		
		uses_church_power = yes				# Uses church power/aspect mechanics
		aspects = {
			service_of_wandering_warriors 
			leadership_of_martial_heroes
			romanticize_our_feats
			organize_the_sects
			#medicine_and_alchemy
			martial_arts_for_the_peasantry
			medidation_through_farming
			preserve_the_secret_world
			#trial_by_combat
			#community_around_the_temple
			karmic_code
			matchlock_monks


		}
		aspects_name = RIGHTEOUS_PATH_ASPECTS
		
		on_convert = {
			change_religion = righteous_path 
			add_prestige = -100
			
			add_country_modifier = {
				name = "conversion_zeal"
				duration = 3650
			}
		}
		
		heretic = { FORBIDDEN_PATH }
		
	}
	
	lefthand_path = {
		color = { 57  57  57 }
		icon = 55
		allowed_conversion = {
			righteous_path
		}
		country = {
			tolerance_own = 1
		}
		country_as_secondary = {
			reinforce_speed = 0.1
		}
		
		# uses_church_power = yes				# Uses church power/aspect mechanics
		# aspects = {
		# 	wandering_warriors 
		# 	bladedancing 

		# }
		# aspects_name = RIGHTEOUS_PATH_ASPECTS
		
		on_convert = {
			change_religion = lefthand_path 
			add_prestige = -100
			
			add_country_modifier = {
				name = "conversion_zeal"
				duration = 3650
			}
		}
		
		heretic = { ONI_DISSIDENTS }
		
	}
	
	harmonized_modifier = harmonized_halessi
}
triunic_lake = {
	can_form_personal_unions = no
	flags_with_emblem_percentage = 33 # default == 0
	flag_emblem_index_range = { 1 57 }
	
	kodave_followers = {	#Warrior Goddess
		color = { 235 88 48 }
		icon = 80
		misguided_heretic = yes
		country = {
			infantry_power = 0.1
			tolerance_heathen = -2
		}
		country_as_secondary = {
			infantry_power = 0.1
		}
		
		province = {
			garrison_growth = 0.1
			local_defensiveness = 0.1
		}
		on_convert = {
			change_religion = kodave_followers 
			add_prestige = -100
			
			add_country_modifier = {
				name = "conversion_zeal"
				duration = 3650
			}
		}
		
		heretic = { OGTOCHODSAKS }
	}
	
	yukel_followers = {	#Mother Goddess
		color = { 160 160 160 }
		icon = 79
		misguided_heretic = yes
		country = {
			trade_efficiency = 0.1
			tolerance_heretic = 2
		}
		country_as_secondary = {
			trade_efficiency = 0.1
		}
		
		province = {
			trade_value_modifier = 0.1
		}
		on_convert = {
			change_religion = yukel_followers 
			add_prestige = -100
			
			add_country_modifier = {
				name = "conversion_zeal"
				duration = 3650
			}
		}
		
		heretic = { OGTOCHODSAKS }
	}
	
	enuuk_followers = {	#Trade Goddess
		color = { 225 181 55 }
		icon = 81
		misguided_heretic = yes
		country = {
			production_efficiency = 0.1
		}
		country_as_secondary = {
			production_efficiency = 0.1
		}
		
		province = {
			local_development_cost = -0.1
		}
		on_convert = {
			change_religion = enuuk_followers 
			add_prestige = -100
			
			add_country_modifier = {
				name = "conversion_zeal"
				duration = 3650
			}
		}
		
		heretic = { OGTOCHODSAKS }
	}
	
	kalyin_worshippers = {	
		color = { 100 127 200 }
		icon = 82
		country = {
			global_trade_goods_size_modifier = 0.1
			infantry_power = 0.05
			tolerance_heretic = -2
		}
		country_as_secondary = {
			global_trade_goods_size_modifier = 0.1
		}
		
		province = {
			trade_value_modifier = 0.1
		}
		on_convert = {
			change_religion = kalyin_worshippers 
			add_prestige = -100
			
			add_country_modifier = {
				name = "conversion_zeal"
				duration = 3650
			}
		}
		
		heretic = { OGTOCHODSAKS }
	}
	
	harmonized_modifier = harmonized_triunic
}

giantkin = {

	can_form_personal_unions = no
	flags_with_emblem_percentage = 33 # default == 0
	flag_emblem_index_range = { 1 57 }

	feast_of_the_gods = {
		color = { 120 127 89 }
		icon = 95
		allowed_conversion = {
			#sikhism
		}
		country = {
			prestige_from_land = 0.3
			global_manpower_modifier = 0.1
		}
		country_as_secondary = {
			prestige_from_land = 0.25
		}
		
		province = {
			supply_limit_modifier = 0.15
		}
		
		on_convert = {
			change_religion = feast_of_the_gods
			add_prestige = -100
			
			add_country_modifier = {
				name = "conversion_zeal"
				duration = 3650
			}
		}
		
		heretic = { CHAOS_WORSHIPPERS }
	}
	
		mountain_watchers = {
		color = { 41 41 77 }
		icon = 94
		allowed_conversion = {
			#sikhism
		}
		country = {
			movement_speed = 0.10
			defensiveness = 0.15
		}
		country_as_secondary = {
			movement_speed = 0.075
			defensiveness = 0.05
		}
		
		province = {
			local_hostile_attrition = 1
		}
		
		on_convert = {
			change_religion = mountain_watchers
			add_prestige = -100
			
			add_country_modifier = {
				name = "conversion_zeal"
				duration = 3650
			}
		}
		
		heretic = { CHAOS_WORSHIPPERS }
	}
	
	harmonized_modifier = harmonized_giantkin
	
	crusade_name = HOLY_WAR
}

centaur_religion = {
	can_form_personal_unions = no
	flags_with_emblem_percentage = 33 # default == 0
	flag_emblem_index_range = { 1 57 }
	
	ik_magthaal = {	#Corrupted Great Prairie in Mongolian
		color = { 60 40 20 }
		icon = 83
		country = {
			cavalry_shock = 0.25
			horde_unity = 1
		}
		country_as_secondary = {
			cavalry_shock = 0.25
		}
		
		on_convert = {
			change_religion = ik_magthaal 
			add_prestige = -100
			
			add_country_modifier = {
				name = "conversion_zeal"
				duration = 3650
			}
		}

		heretic = { CHAOS_WORSHIPPERS }
	}
	
	harmonized_modifier = harmonized_fey_religion
}