#252 - Highlands

owner = A46
controller = A46
add_core = A46
culture = arbarani
religion = regent_court

hre = yes

base_tax = 4
base_production = 4
base_manpower = 4

trade_goods = grain

capital = ""

is_city = yes
fort_15th = yes 








add_permanent_province_modifier = {
	name = half_elven_minority_coexisting_small
	duration = -1
}