#416 - Antirhalan

owner = A56
controller = A56
add_core = A56
culture = arannese
religion = regent_court

hre = yes

base_tax = 4
base_production = 4
base_manpower = 3

trade_goods = naval_supplies

capital = ""

is_city = yes











add_permanent_province_modifier = {
	name = half_elven_minority_coexisting_small
	duration = -1
}