country_decisions = {

	arannen_nation = {
		major = yes
		potential = {
			OR = {
				ai = no
				NOT = { exists = A72 }
			}
			primary_culture = arannese
			
			NOT = { has_country_flag = formed_arannen_flag }
			OR = {
				ai = no
				is_playing_custom_nation = no
			}
			NOT = { tag = Z01 }	#Anbennar
			NOT = { tag = A72 }	#Arannen
			is_colonial_nation = no
			OR = {
				is_former_colonial_nation = no
				AND = {
					is_former_colonial_nation = yes
					ai = no
				}
			}
			normal_or_historical_nations = yes
			was_never_end_game_tag_trigger = yes
		}
		provinces_to_highlight = {
			OR = {
				province_id = 904 # Arannen
				province_id = 313 # Endersby
				province_id = 418 # Marllin
				province_id = 325 # Cronesford
				province_id = 419 # Varlosen
			}
			OR = {
				NOT = { owned_by = ROOT }
				NOT = { is_core = ROOT }
			}
		}
		allow = {
			is_at_war = no
			is_free_or_tributary_trigger = yes
			is_nomad = no			
			NOT = { exists = A72 }
			owns_core_province = 904 # Arannen
			owns_core_province = 313 # Endersby
			owns_core_province = 418 # Marllin
			owns_core_province = 325 # Cronesford
			owns_core_province = 419 # Varlosen
		}
		effect = {
			904 = { # Arannen
				move_capital_effect = yes
			}
			change_tag = A72
			swap_non_generic_missions = yes
			eastborders_area = {
				limit = {
					NOT = { owned_by = ROOT }
				}
				add_permanent_claim = A72
			}
			hidden_effect = {
				if = {
					limit = {
						421 = { is_city = yes }
					}
					complete_mission = A72_colonize_the_wisphollow
				}
			}
			add_country_modifier = {
				name = "centralization_modifier"
				duration = 7300
			}
			add_prestige = 25
			if = {
				limit = {
					has_custom_ideas = no
					OR = {
						ai = no
						AND = {
							ai = yes
							has_idea_group = default_ideas
						}
					}
				}
				country_event = { id = ideagroups.1 } #Swap Ideas
			}
			set_country_flag = formed_arannen_flag
		}
		ai_will_do = {
			factor = 1
		}
	}
	
}