namespace = anb_debug

#Give Me Witch Kings
country_event = {
	id = anb_debug.1
	title = anb_debug.1.t
	desc = anb_debug.1.d
	picture = HUIZTILOPOCHTLI_eventPicture
	
	is_triggered_only = yes
	
	# Come forth!
	option = {
		name = anb_debug.1.a
		ai_chance = {
			factor = 90
		}
		
		increase_witch_king_points_large = yes
		increase_witch_king_points_large = yes
		increase_witch_king_points_large = yes
		increase_witch_king_points_large = yes
		increase_witch_king_points_large = yes
		increase_witch_king_points_large = yes
		increase_witch_king_points_large = yes
		increase_witch_king_points_large = yes
		increase_witch_king_points_large = yes
		increase_witch_king_points_large = yes
		
	}
}

##Colonist stuck on settlement growth fix
country_event = {
	id = anb_debug.2
	title = anb_debug.2.t
	desc = anb_debug.2.d
	picture = HUIZTILOPOCHTLI_eventPicture
	
	hidden = yes
	
	mean_time_to_happen = {
		months = 6
	}
	
	trigger = {
		variable_arithmetic_trigger = {
			export_to_variable = { which = v1 value = trigger_value:num_of_colonists }
			export_to_variable = { which = v2 value = trigger_value:num_of_colonies }
			NOT = { check_variable = { which = v2 which = v1 } }
		}
		#has_global_modifier_value = { # this would help countries wih siberian frontiers if put in an OR, but raises performance cost
		#	which = may_establish_frontier
		#	value = yes
		#}


		#has_country_flag = avoids_colonist_settlement_growth #old code, kept for posterity
		#any_owned_province = {
		#	has_colonist = yes
		#	is_city = yes
		#}
		ai = yes
	}
	
	option = {
		name = debug.6.a
		if = {
			limit = {
				has_dlc = "Golden Century"
			}
			every_owned_province = {
				limit = { has_colonist = yes is_city = yes }
				cancel_construction = yes
			}
			if = {
				limit = {
					superregion = escann_superregion
				}
				random_empty_neighbor_province = {
					create_colony = 1
				}
				if = {
					limit = {
						NOT = { num_of_colonies = 1 }
						escann_superregion = {
							is_city = yes
							type = all
						}
					}
					add_country_modifier = {
						name = dont_colonize_but_migrate
						duration = -1
					}
				}
			}
			else_if = {
				limit = {
					capital_scope = {
						continent = serpentspine
					}
					serpentspine = {
						is_city = yes
						type = all
					}
				}
				add_country_modifier = {
					name = dont_colonize_but_migrate
					duration = -1
				}
			}
		}
	}
}

##Cleaning province
province_event = {
	id = anb_debug.3
	title = anb_debug.3.t
	desc = anb_debug.3.d
	picture = HUIZTILOPOCHTLI_eventPicture
	
	hidden = yes
	is_triggered_only = yes
	
	trigger = {
		has_province_flag = cant_colonize
	}
	
	option = {
		name = debug.6.a
		
		if = {
			limit = { 
				owner = { ai = no }
			}
			clr_province_flag = cant_colonize
		}
		else = {
			add_colonysize = -1000
			clr_province_flag = cant_colonize
		}
	}
}
